{
    "key": "confluence-web-components-connect",
    "name": "Confluence Web Components",
    "description": "An add-on that showcases the Confluence Web Components for Connect developers.",
    "vendor": {
        "name": "Atlassian",
        "url": "https://developer.atlassian.com"
    },
    "baseUrl": "{{localBaseUrl}}",
    "links": {
        "self": "{{localBaseUrl}}/atlassian-connect.json",
        "homepage": "{{localBaseUrl}}/atlassian-connect.json"
    },
    "authentication": {
        "type": "jwt"
    },
    "lifecycle": {
        "installed": "/installed"
    },
    "scopes": [
        "READ",
        "WRITE",
        "ADMIN",
        "SPACE_ADMIN",
        "DELETE"
    ],
    "modules": {
        "generalPages": [
            {
                "key": "documentation",
                "location": "system.header/left",
                "name": {
                    "value": "Web Components"
                },
                "url": "/web-components",
                "conditions": [{
                    "condition": "user_is_logged_in"
                }]
            },
            {
                "key": "example-site",
                "name": {
                    "value": "Example"
                },
                "url": "/example-site",
                "conditions": [{
                    "condition": "user_is_logged_in"
                }]
            },
            {
                "key": "quick-search",
                "name": { "value": "Quick search" },
                "url": "/components/quick-search",
                "conditions": [{ "condition": "user_is_logged_in" }]
            },
            {
                "key": "content-body",
                "name": { "value": "Content body" },
                "url": "/components/content-body",
                "conditions": [{ "condition": "user_is_logged_in" }]
            },
            {
                "key": "comment-list",
                "name": { "value": "Comment list" },
                "url": "/components/comment-list",
                "conditions": [{ "condition": "user_is_logged_in" }]
            },
            {
                "key": "twenty-fifteen",
                "name": {
                    "value": "Twenty Fifteen"
                },
                "url": "/twenty-fifteen",
                "conditions": [{
                    "condition": "user_is_logged_in"
                }]
            }
        ],
        "confluenceThemes": [
            {
                "key": "twenty-fifteen-theme",
                "icon": {
                    "width": 110,
                    "height": 70,
                    "url": "/public/themes/twenty-fifteen/icon.png"
                },
                "name": {
                    "value": "Twenty Fifteen"
                },
                "description": {
                    "value": "The WordPress 2015 theme is clean, blog-focused, and designed for clarity. Twenty Fifteen is simple, straightforward typography is readable on a wide variety of screen sizes, and suitable for multiple languages. It was designed using a mobile-first approach, meaning your content takes center-stage, regardless of whether your visitors arrive by smartphone, tablet, laptop, or desktop computer."
                },
                "routes": {
                    "dashboard": {
                        "url": "/themes/twenty-fifteen/dashboard"
                    },
                    "sitesearch": {
                        "url": "/themes/twenty-fifteen/sitesearch?queryString={queryString}&cql={cql}&includeArchivedSpaces={includeArchivedSpaces}"
                    },
                    "spaceview": {
                        "url": "/themes/twenty-fifteen/viewpage?pageId={content.id}&spaceKey={space.key}&contentType={content.type}"
                    },
                    "contentview": {
                        "url": "/themes/twenty-fifteen/viewpage?pageId={content.id}&spaceKey={space.key}&contentType={content.type}"
                    }
                }
            },
            {
                "key": "material-design-theme",
                "icon": {
                    "width": 110,
                    "height": 70,
                    "url": "/public/themes/material-design/icon.png"
                },
                "name": {
                    "value": "Material Design"
                },
                "description": {
                    "value": "Material Design is a design language developed by Google. Expanding upon the card motifs that debuted in Google Now, Material Design makes more liberal use of grid-based layouts, responsive animations and transitions, padding, and depth effects such as lighting and shadows."
                },
                "routes": {
                    "dashboard": {
                        "url": "/themes/material-design/dashboard"
                    },
                    "spaceview": {
                        "url": "/themes/material-design/viewpage?pageId={content.id}&spaceKey={space.key}&contentType={content.type}"
                    },
                    "contentview": {
                        "url": "/themes/material-design/viewpage?pageId={content.id}&spaceKey={space.key}&contentType={content.type}"
                    }
                }
            }
        ]
    }
}
